<svg id="category-24px" xmlns="http://www.w3.org/2000/svg" width="38.36" height="37.443" viewBox="0 0 38.36 37.443">
  <path id="Path_9" data-name="Path 9" d="M0,0H38.36V37.443H0Z" fill="none"/>
  <path id="Path_10" data-name="Path 10" d="M14.925,2,6.5,15.787H23.35Z" transform="translate(4.255 1.064)"/>
  <circle id="Ellipse_1" data-name="Ellipse 1" cx="7" cy="7" r="7" transform="translate(21 20)"/>
  <path id="Path_11" data-name="Path 11" d="M3,13.5H15.255V25.755H3Z" transform="translate(1.596 7.858)"/>
</svg>
