<svg id="home-24px" xmlns="http://www.w3.org/2000/svg" width="43.43" height="40.682" viewBox="0 0 43.43 40.682">
  <path id="Path_1" data-name="Path 1" d="M0,0H43.43V40.682H0Z" fill="none"/>
  <path id="Path_2" data-name="Path 2" d="M18.264,38.832V26.185H26.4V38.832H36.56V21.97h6.1L22.329,3,2,21.97H8.1V38.832Z" transform="translate(-0.614 -0.922)"/>
</svg>
